{
  "schemaVersion": 1,
  "id": "whatsinthebox",
  "version": "${version}",

  "name": "What Is In The Box API",
  "description": "Api for retreiving LootTable Information from the server",
  "authors": [
    "Biom4st3r"
  ],
  "contact": {
    "homepage": "https://gitlab.com/biom4st3r",
    "sources": "https://gitlab.com/biom4st3r"
  },

  "license": "CC0-1.0",
  "icon": "assets/modid/icon.png",

  "environment": "*",
  "entrypoints": {
    "main": [
      "com.biom4st3r.whatsinthebox.WhatsInTheBox"
    ],
    "client":
    [
      "com.biom4st3r.whatsinthebox.WhatsInTheBox"
    ]
  },
  "mixins": [
    "whatsinthebox.mixins.json"
  ],

  "depends": {
    "fabricloader": ">=0.4.0",
    "fabric": "*"
  },
  "suggests": {
    "flamingo": "*"
  }
}
