{
  "required": true,
  "package": "com.biom4st3r.whatsinthebox.mxn",
  "compatibilityLevel": "JAVA_8",
  "mixins": [
    "LootManagerMxn",
    "MinecraftClientMxn",
    "LootableContainerBlockEntityMxn",
    "LootTableMxn",
    "LootPoolMxn",
    "ExposedItemEntry",
    "ExposedLeafEntry",
    "ExposedLootEntry",
    "ExposedLootTableEntry"
  ],
  "client": [ 
  ],
  "injectors": {
    "defaultRequire": 1
  }
}
